module gitlab.com/cloudedcat/debt-bot

go 1.12

require (
	github.com/davecgh/go-spew v1.1.1 // indirect
	github.com/golang/mock v1.3.1
	github.com/google/go-cmp v0.3.0
	github.com/stretchr/testify v1.3.0 // indirect
	github.com/tidwall/btree v0.0.0-20170113224114-9876f1454cf0 // indirect
	github.com/tidwall/buntdb v1.1.0
	github.com/tidwall/gjson v1.2.1 // indirect
	github.com/tidwall/grect v0.0.0-20161006141115-ba9a043346eb // indirect
	github.com/tidwall/match v1.0.1 // indirect
	github.com/tidwall/pretty v1.0.0 // indirect
	github.com/tidwall/rtree v0.0.0-20180113144539-6cd427091e0e // indirect
	github.com/tidwall/tinyqueue v0.0.0-20180302190814-1e39f5511563 // indirect
	go.uber.org/atomic v1.4.0 // indirect
	go.uber.org/multierr v1.1.0 // indirect
	go.uber.org/zap v1.10.0
	gopkg.in/tucnak/telebot.v2 v2.0.0-20190415090633-8c1c512262f2
)
